ex3/exercise3_template_restored/simulation/qsim/exercise3.msim.vcd
$comment
	File created using the following command:
		vcd file exercise3.msim.vcd -direction
$end
$date
	Thu Sep 22 11:28:32 2022
$end
$version
	ModelSim Version 10.1d
$end
$timescale
	1ps
$end
$scope module four_bit_adder_simple_vlg_vec_tst $end
$var reg 4 ! a [3:0] $end
$var reg 4 " b [3:0] $end
$var reg 1 # Cin $end
$var wire 1 $ Cout $end
$var wire 1 % sum [3] $end
$var wire 1 & sum [2] $end
$var wire 1 ' sum [1] $end
$var wire 1 ( sum [0] $end
$var wire 1 ) sampler $end
$scope module i1 $end
$var wire 1 * gnd $end
$var wire 1 + vcc $end
$var wire 1 , unknown $end
$var tri1 1 - devclrn $end
$var tri1 1 . devpor $end
$var tri1 1 / devoe $end
$var wire 1 0 Cin~combout $end
$var wire 1 1 Add0~1_cout $end
$var wire 1 2 Add0~2_combout $end
$var wire 1 3 Add0~3 $end
$var wire 1 4 Add0~4_combout $end
$var wire 1 5 Add0~5 $end
$var wire 1 6 Add0~6_combout $end
$var wire 1 7 Add0~7 $end
$var wire 1 8 Add0~8_combout $end
$var wire 1 9 Add0~9 $end
$var wire 1 : Add0~10_combout $end
$var wire 1 ; a~combout [3] $end
$var wire 1 < a~combout [2] $end
$var wire 1 = a~combout [1] $end
$var wire 1 > a~combout [0] $end
$var wire 1 ? b~combout [3] $end
$var wire 1 @ b~combout [2] $end
$var wire 1 A b~combout [1] $end
$var wire 1 B b~combout [0] $end
$upscope $end
$upscope $end
$enddefinitions $end
#0
$dumpvars
b0 !
b0 "
0#
0$
0(
0'
0&
0%
x)
0*
1+
x,
1-
1.
1/
00
01
02
13
04
05
06
17
08
09
0:
0>
0=
0<
0;
0B
0A
0@
0?
$end
#80000
b1000 !
b1100 !
b1110 !
b1111 !
1>
1=
1<
1;
0)
12
14
16
18
1(
1'
1&
1%
#160000
b1000 "
b1100 "
b1110 "
b1111 "
b111 !
b11 !
b1 !
b0 !
0>
0=
0<
0;
1B
1A
1@
1?
1)
#240000
b1000 !
b1100 !
b1110 !
b1111 !
1>
1=
1<
1;
0)
03
02
15
04
07
06
19
08
14
16
18
1:
0(
0'
0&
0%
1'
1&
1%
1$
#320000
1#
b111 "
b11 "
b1 "
b0 "
b111 !
b11 !
b1 !
b0 !
10
0>
0=
0<
0;
0B
0A
0@
0?
1)
11
13
05
17
09
12
04
06
08
0:
1(
0'
0&
0%
0$
#400000
b1000 !
b1100 !
b1110 !
b1111 !
1>
1=
1<
1;
0)
03
02
14
16
18
15
04
0(
1'
1&
1%
07
06
0'
19
08
0&
1:
0%
1$
#480000
b1000 "
b1100 "
b1110 "
b1111 "
b111 !
b11 !
b1 !
b0 !
0>
0=
0<
0;
1B
1A
1@
1?
1)
#560000
b1000 !
b1100 !
b1110 !
b1111 !
1>
1=
1<
1;
0)
12
14
16
18
1(
1'
1&
1%
#640000
0#
b111 "
b11 "
b1 "
b0 "
b111 !
b11 !
b1 !
b0 !
00
0>
0=
0<
0;
0B
0A
0@
0?
1)
01
13
05
17
09
02
04
06
08
0:
0(
0'
0&
0%
0$
